B.02 - Parsing mpileup Results • KrasAlleleCna
…
mpileup_data <- mpileup_data %>%
    filter(file_id %in% annovar_tib$file_id)

The downstream steps only required the total number of reads and the number of mutant reads. These values were isolated into columns total_num_reads and num_mut_reads, respectively.

mpileup_data <- mpileup_data %>%
    mutate(total_num_reads = as.numeric(num_high_qual_bases),
               num_mut_reads = str_split_fixed(allelic_depths,
                                               ",", 2)[, 2]) %>%
    select(file_id, start, total_num_reads, num_mut_reads) %>%
    filter(!(str_detect(num_mut_reads, ",") | num_mut_reads == "")) %>%
    mutate(num_mut_reads = as.numeric(num_mut_reads),
           total_num_reads = as.numeric(total_num_reads))
mpileup_data
#> # A tibble: 52,161 x 4
#>    file_id                              start total_num_reads num_mut_reads
#>    <chr>                                <dbl>           <dbl>         <dbl>
#>  1 00b7ee04-b97b-49ee-b27b-13f6fb981…  2.52e7               1             1
#>  2 00b7ee04-b97b-49ee-b27b-13f6fb981…  2.52e7               1             1
#>  3 00b7ee04-b97b-49ee-b27b-13f6fb981…  2.52e7               2             1
#>  4 00b7ee04-b97b-49ee-b27b-13f6fb981…  2.52e7               1             1
#>  5 00b7ee04-b97b-49ee-b27b-13f6fb981…  2.52e7               4             1
#>  6 00b7ee04-b97b-49ee-b27b-13f6fb981…  2.52e7               4             1
#>  7 00b7ee04-b97b-49ee-b27b-13f6fb981…  2.52e7               6             1
#>  8 00b7ee04-b97b-49ee-b27b-13f6fb981…  2.52e7               3             1
#>  9 00b7ee04-b97b-49ee-b27b-13f6fb981…  2.52e7               1             1
#> 10 00b7ee04-b97b-49ee-b27b-13f6fb981…  2.52e7               1             1
#> # … with 52,151 more rows
…
