C.01 - Calculate Allele-specfic Copy Number • KrasAlleleCna
…
#> Parsed with column specification:
#> cols(
#>   array = col_character(),
#>   sample = col_character(),
#>   `call status` = col_character(),
#>   purity = col_double(),
#>   ploidy = col_double(),
#>   `Genome doublings` = col_double(),
#>   `Coverage for 80% power` = col_double(),
#>   `Cancer DNA fraction` = col_double(),
#>   `Subclonal genome fraction` = col_double(),
#>   solution = col_character()
#> )
purity_tib
#> # A tibble: 10,786 x 2
#>    common_id        purity
#>    <chr>             <dbl>
#>  1 TCGA-OR-A5J1-01A   0.9 
#>  2 TCGA-OR-A5J2-01A   0.89
#>  3 TCGA-OR-A5J3-01A   0.93
#>  4 TCGA-OR-A5J4-01A   0.87
#>  5 TCGA-OR-A5J5-01A   0.93
#>  6 TCGA-OR-A5J6-01A   0.69
#>  7 TCGA-OR-A5J7-01A   0.84
#>  8 TCGA-OR-A5J8-01A   0.76
#>  9 TCGA-OR-A5J9-01A   0.84
#> 10 TCGA-OR-A5JA-01A   0.75
#> # … with 10,776 more rows

Tumor CNV data were downloaded from https://gdc.cancer.gov/about-data/publications/pancanatlas and labeled “Copy Number - broad.mit.edu_PANCAN_Genome_Wide_SNP_6_whitelisted.seg” (Due to file size restrictions, “tcga_copynumber.tsv” is available in a compressed for in “inst/extdata/”, and was loaded into “data” for use in the package using usethis::use_data().)

KRAS is on chromosome 12 in humans, so only data for that chromomsome was retained. The common_id was extracted as above and the start and stop columns for the CNV calls were renamed to be more specific to remove ambiguity after merging data sets, later. Finally, the copy number was calculated from the Segment_Mean; I found out how to do this here: “The GDC further transforms these copy number values into segment mean values, which are equal to log2(copy-number/ 2). Diploid regions will have a segment mean of zero, amplified regions will have positive values, and deletions will have negative values.”

cnv_tib %<>%
    filter(Chromosome == 12) %>%
    mutate(common_id = str_sub(Sample, 1, 16)) %>%
    dplyr::rename(CNV_start = Start,
                  CNV_end = End) %>%
    mutate(copy_number = 2^(Segment_Mean + 1)) %>%
    select(common_id, CNV_start, CNV_end, copy_number)
cnv_tib
#> # A tibble: 125,292 x 4
#>    common_id        CNV_start   CNV_end copy_number
#>    <chr>                <dbl>     <dbl>       <dbl>
#>  1 TCGA-OR-A5J1-10A    889902 133161346        2.00
#>  2 TCGA-OR-A5J1-01A    889902   6397137        2.03
#>  3 TCGA-OR-A5J1-01A   6405578   6604354        2.88
#>  4 TCGA-OR-A5J1-01A   6605105  69115694        2.01
#>  5 TCGA-OR-A5J1-01A  69116140  70403918        2.88
#>  6 TCGA-OR-A5J1-01A  70413723 109705218        2.01
#>  7 TCGA-OR-A5J1-01A 109707986 110609714        2.94
#>  8 TCGA-OR-A5J1-01A 110619349 113176543        2.02
#>  9 TCGA-OR-A5J1-01A 113178406 113622306        2.96
#> 10 TCGA-OR-A5J1-01A 113626419 113881057        3.84
#> # … with 125,282 more rows
…
