Parse a VCF file — parse_vcf • KrasAlleleCna
…
parse_vcf("example.vcf")
#> # A tibble: 8,917 x 7
#>       start ref   alt    qual read_info    num_high_qual_bas… allelic_depths
#>       <dbl> <chr> <chr> <dbl> <chr>        <chr>              <chr>
#>  1 25202434 A     <*>       0 0,3,29:1:1,0 1                  1
#>  2 25202435 G     <*>       0 0,3,31:1:1,0 1                  1
#>  3 25202436 C     <*>       0 0,3,28:1:1,0 1                  1
#>  4 25202437 A     <*>       0 0,3,30:1:1,0 1                  1
#>  5 25202438 G     <*>       0 0,3,34:1:1,0 1                  1
#>  6 25202439 G     <*>       0 0,3,33:1:1,0 1                  1
#>  7 25202440 G     <*>       0 0,3,34:1:1,0 1                  1
#>  8 25202441 G     <*>       0 0,3,33:1:1,0 1                  1
#>  9 25202442 A     <*>       0 0,3,32:1:1,0 1                  1
#> 10 25202443 T     <*>       0 0,3,31:1:1,0 1                  1
#> # … with 8,907 more rows
…
